{
  "project_info": {
    "project_number": "968082137094",
    "project_id": "hey-trippy-65ff6",
    "storage_bucket": "hey-trippy-65ff6.appspot.com"
  },
  "client": [
    {
      "client_info": {
        "mobilesdk_app_id": "1:968082137094:android:66eeacc57c171c1bdda387",
        "android_client_info": {
          "package_name": "com.heytrippy.hey_trippy"
        }
      },
      "oauth_client": [
        {
          "client_id": "968082137094-59f0va5c9hfup2375qhmb33to5f577fb.apps.googleusercontent.com",
          "client_type": 1,
          "android_info": {
            "package_name": "com.heytrippy.hey_trippy",
            "certificate_hash": "9d6645d4115e1ff8c5b820d201017b2a0be4e8fc"
          }
        },
        {
          "client_id": "968082137094-cs4l89hfe2mqslclr1r3hm39opansbck.apps.googleusercontent.com",
          "client_type": 3
        }
      ],
      "api_key": [
        {
          "current_key": "AIzaSyDysVK4-CU-EgOwho7pWVoBvVPXEiWLPDk"
        }
      ],
      "services": {
        "appinvite_service": {
          "other_platform_oauth_client": [
            {
              "client_id": "968082137094-cs4l89hfe2mqslclr1r3hm39opansbck.apps.googleusercontent.com",
              "client_type": 3
            }
          ]
        }
      }
    }
  ],
  "configuration_version": "1"
}